"id","name","city","state_abbreviation","position_group_abbreviation","height","weight","sign","stars","rivals_rating","commit_date","url","status","sport","year","state","home.town","lon","lat"
39012,"Michael Harrison","Dallas","TX","WR",73.5,191,TRUE,2,5.3,"2009-02-03","https://n.rivals.com/content/prospects/2009/michael-harrison-39012","signed","Football",2009,"Texas","Dallas, Texas",-96.240533,32.370699
53916,"Dameron Fooks","Fullerton","CA","WR",75,210,TRUE,0,0,"2009-06-15","https://n.rivals.com/content/prospects/2009/dameron-fooks-53916","signed","Football",2009,"California","Fullerton, California",-117.925338,33.870292
28406,"Jeremy Smith","Tulsa","OK","RB",70,206,TRUE,4,5.8,"2008-02-26","https://n.rivals.com/content/prospects/2009/jeremy-smith-28406","signed","Football",2009,"Oklahoma","Tulsa, Oklahoma",-95.992775,36.153982
31097,"Jordan Barnes","Fort Wayne","IN","LB",72,225,TRUE,3,5.7,"2009-01-26","https://n.rivals.com/content/prospects/2009/jordan-barnes-31097","signed","Football",2009,"Indiana","Fort Wayne, Indiana",-85.12886,41.130604
43428,"LeRon Furr","Columbus","GA","LB",74,225,TRUE,3,5.6,"2008-12-08","https://n.rivals.com/content/prospects/2009/leron-furr-43428","signed","Football",2009,"Georgia","Columbus, Georgia",-84.97823,32.472864
29707,"Daytawion Lowe","Midwest City","OK","DB",72,175,TRUE,4,5.8,"2008-10-31","https://n.rivals.com/content/prospects/2009/daytawion-lowe-29707","signed","Football",2009,"Oklahoma","Midwest City, Oklahoma",-97.562817,35.491608
15787,"Andrae May","Galena Park","TX","DB",73,170,TRUE,3,5.5,"2008-06-05","https://n.rivals.com/content/prospects/2009/andrae-may-15787","signed","Football",2009,"Texas","Galena Park, Texas",-95.23021,29.73356
71184,"Andrew McGee","Wesson","MS","DB",73,190,TRUE,2,5.4,"2008-12-05","https://n.rivals.com/content/prospects/2009/andrew-mcgee-71184","signed","Football",2009,"Mississippi","Wesson, Mississippi",-90.39759,31.70128
70446,"Anthony Morgan","Corsicana","TX","OL",76,325,TRUE,4,6,"2008-07-17","https://n.rivals.com/content/prospects/2009/anthony-morgan-70446","signed","Football",2009,"Texas","Corsicana, Texas",-96.350943,32.043193
12686,"Brandon Webb","Owasso","OK","OL",76,320,TRUE,4,5.8,"2008-06-04","https://n.rivals.com/content/prospects/2009/brandon-webb-12686","signed","Football",2009,"Oklahoma","Owasso, Oklahoma",-95.85471,36.26954
32933,"Dexter Pratt","Navasota","TX","ATH",74,227,TRUE,4,5.9,"2009-01-19","https://n.rivals.com/content/prospects/2009/dexter-pratt-32933","signed","Football",2009,"Texas","Navasota, Texas",-96.008619,30.383369
87376,"Joe Mitchell","Katy","TX","ATH",75,215,TRUE,3,5.5,"2008-11-18","https://n.rivals.com/content/prospects/2009/joe-mitchell-87376","signed","Football",2009,"Texas","Katy, Texas",-95.824396,29.785785
87429,"Levy Adcock","Miami","OK","OL",78,320,TRUE,0,0,"2009-05-07","https://n.rivals.com/content/prospects/2009/levy-adcock-87429","signed","Football",2009,"Oklahoma","Miami, Oklahoma",-94.854482,36.842401
29719,"Michael Bowie","Sand Springs","OK","OL",77,300,TRUE,3,5.7,"2008-12-19","https://n.rivals.com/content/prospects/2009/michael-bowie-29719","signed","Football",2009,"Oklahoma","Sand Springs, Oklahoma",-97.562817,35.491608
56433,"Parker Graham","Webb City","MO","OL",79,255,TRUE,2,5.2,"2009-01-27","https://n.rivals.com/content/prospects/2009/parker-graham-56433","signed","Football",2009,"Missouri","Webb City, Missouri",-94.463,37.14645
22853,"Charlie Moore","Bullard","TX","QB",74,190,TRUE,2,5.4,"2008-12-20","https://n.rivals.com/content/prospects/2009/charlie-moore-22853","signed","Football",2009,"Texas","Bullard, Texas",-95.32023,32.13988
22854,"Clint Chelf","Enid","OK","QB",75,200,TRUE,3,5.5,"2008-12-05","https://n.rivals.com/content/prospects/2009/clint-chelf-22854","signed","Football",2009,"Oklahoma","Enid, Oklahoma",-97.843091,36.402681
43542,"Tracy Moore","Tulsa","OK","TE",76,230,TRUE,3,5.7,"2009-01-12","https://n.rivals.com/content/prospects/2009/tracy-moore-43542","signed","Football",2009,"Oklahoma","Tulsa, Oklahoma",-95.992775,36.153982
40464,"Anthony Rogers","North Little Rock","AR","DE",76,235,TRUE,3,5.6,"2008-12-02","https://n.rivals.com/content/prospects/2009/anthony-rogers-40464","signed","Football",2009,"Arkansas","North Little Rock, Arkansas",-91.207356,33.608922
87520,"Andrew Hudson","Bushland","TX","DE",77,235,TRUE,3,5.6,"2008-07-17","https://n.rivals.com/content/prospects/2009/andrew-hudson-87520","signed","Football",2009,"Texas","Bushland, Texas",-102.06464,35.192
13612,"Ryan Robinson","Hoschton","GA","DE",76,245,TRUE,2,5.4,"2009-01-27","https://n.rivals.com/content/prospects/2009/ryan-robinson-13612","signed","Football",2009,"Georgia","Hoschton, Georgia",-83.71817,34.099031
32240,"Darius Hart","Poplarville","MS","DE",78,250,TRUE,3,5.5,"2008-11-11","https://n.rivals.com/content/prospects/2009/darius-hart-32240","signed","Football",2009,"Mississippi","Poplarville, Mississippi",-89.58072,30.756774
87525,"David Paulsen","Marietta","GA","DE",75,236,TRUE,3,5.6,"2008-11-03","https://n.rivals.com/content/prospects/2009/david-paulsen-87525","signed","Football",2009,"Georgia","Marietta, Georgia",-84.549933,33.952602
98032,"Horace Hubbard","Fort Scott","KS","DT",77,281,TRUE,3,5.7,"2008-12-05","https://n.rivals.com/content/prospects/2009/horace-hubbard-98032","signed","Football",2009,"Kansas","Fort Scott, Kansas",-94.714793,37.821629
54109,"Colton Richardson","Ada","OK","LB",76,225,TRUE,3,5.5,"2008-10-27","https://n.rivals.com/content/prospects/2009/colton-richardson-54109","signed","Football",2009,"Oklahoma","Ada, Oklahoma",-96.685325,34.748961
87223,"Mike Eargle","Scranton","PA","DB",72,180,TRUE,2,5,"2009-03-02","https://n.rivals.com/content/prospects/2009/mike-eargle-87223","signed","Football",2009,"Pennsylvania","Scranton, Pennsylvania",-75.637626,41.401881
