"id","name","city","state_abbreviation","position_group_abbreviation","height","weight","sign","stars","rivals_rating","commit_date","url","status","sport","year","state","home.town","lon","lat"
93318,"Damien Collins","Dallas","TX","WR",73,187,TRUE,3,0,"2003-07-09","https://n.rivals.com/content/prospects/2002/damien-collins-93318","signed","Football",2002,"Texas","Dallas, Texas",-96.240533,32.370699
97829,"Tevin Williams","Stillwater","OK","WR",74,195,TRUE,2,0,"2003-07-09","https://n.rivals.com/content/prospects/2002/tevin-williams-97829","signed","Football",2002,"Oklahoma","Stillwater, Oklahoma",-97.562817,35.491608
50370,"Freddie Shaw","Shawnee","OK","WR",73,200,TRUE,2,0,"2003-07-09","https://n.rivals.com/content/prospects/2002/freddie-shaw-50370","signed","Football",2002,"Oklahoma","Shawnee, Oklahoma",-96.960092,35.295843
60378,"D&#x0027;Jaun Woods","Oklahoma City","OK","WR",73,190,TRUE,3,0,"2003-07-09","https://n.rivals.com/content/prospects/2002/d-jaun-woods-60378","signed","Football",2002,"Oklahoma","Oklahoma City, Oklahoma",-97.562817,35.491608
44764,"Walter Tate","Shawnee","OK","RB",73,200,TRUE,2,0,"2003-07-09","https://n.rivals.com/content/prospects/2002/walter-tate-44764","signed","Football",2002,"Oklahoma","Shawnee, Oklahoma",-96.960092,35.295843
50385,"Harrell Ester","Galena Park","TX","RB",73,215,TRUE,2,0,"2003-07-09","https://n.rivals.com/content/prospects/2002/harrell-ester-50385","signed","Football",2002,"Texas","Galena Park, Texas",-95.23021,29.73356
93371,"Darnell Smith","San Antonio","TX","LB",75,220,TRUE,3,0,"2003-07-09","https://n.rivals.com/content/prospects/2002/darnell-smith-93371","signed","Football",2002,"Texas","San Antonio, Texas",-94.686315,30.577149
30098,"Maurice Runnels","New Orleans","LA","LB",72,225,TRUE,2,0,"2003-07-09","https://n.rivals.com/content/prospects/2002/maurice-runnels-30098","signed","Football",2002,"Louisiana","New Orleans, Louisiana",-89.930956,30.068812
50135,"Lawrence Pinson","Jenks","OK","LB",74,246,TRUE,4,0,"2003-07-09","https://n.rivals.com/content/prospects/2002/lawrence-pinson-50135","signed","Football",2002,"Oklahoma","Jenks, Oklahoma",-95.980972,36.006567
36176,"Thomas Wright","Sweeny","TX","DB",72,183,TRUE,3,0,"2003-07-09","https://n.rivals.com/content/prospects/2002/thomas-wright-36176","signed","Football",2002,"Texas","Sweeny, Texas",-95.443348,32.413107
102094,"Julius Crosslin","Amarillo","TX","DB",72,215,TRUE,2,0,"2003-07-09","https://n.rivals.com/content/prospects/2002/julius-crosslin-102094","signed","Football",2002,"Texas","Amarillo, Texas",-101.831297,35.221997
93245,"Kurt Seifried","Jenks","OK","OL",76,290,TRUE,3,0,"2003-07-09","https://n.rivals.com/content/prospects/2002/kurt-seifried-93245","signed","Football",2002,"Oklahoma","Jenks, Oklahoma",-95.980972,36.006567
93194,"Albert Bond","Grand Prairie","TX","OL",76,260,TRUE,3,0,"2003-07-09","https://n.rivals.com/content/prospects/2002/albert-bond-93194","signed","Football",2002,"Texas","Grand Prairie, Texas",-97.009389,32.776671
50184,"Adam Harvey","Celina","TX","ATH",73,215,TRUE,2,0,"2003-07-09","https://n.rivals.com/content/prospects/2002/adam-harvey-50184","signed","Football",2002,"Texas","Celina, Texas",-96.726103,33.332852
64607,"Jamar Ransom","El Paso","TX","ATH",71,205,TRUE,3,0,"2003-07-09","https://n.rivals.com/content/prospects/2002/jamar-ransom-64607","signed","Football",2002,"Texas","El Paso, Texas",-106.484592,31.763608
54927,"Jonathan Cruz","Arlington","TX","OL",79,320,TRUE,2,0,"2003-07-09","https://n.rivals.com/content/prospects/2002/jonathan-cruz-54927","signed","Football",2002,"Texas","Arlington, Texas",-97.108066,32.735687
34022,"Sam Hall","Corsicana","TX","OL",76,275,TRUE,4,0,"2003-07-09","https://n.rivals.com/content/prospects/2002/sam-hall-34022","signed","Football",2002,"Texas","Corsicana, Texas",-96.350943,32.043193
93410,"Jamie Beeghley","Midland","TX","QB",75,195,TRUE,3,0,"2003-07-09","https://n.rivals.com/content/prospects/2002/jamie-beeghley-93410","signed","Football",2002,"Texas","Midland, Texas",-102.081464,31.992384
50145,"Greg Gold","Irving","TX","RB",70,190,TRUE,3,0,"2003-07-09","https://n.rivals.com/content/prospects/2002/greg-gold-50145","signed","Football",2002,"Texas","Irving, Texas",-96.948895,32.814018
68332,"Daniel McLemore","Duncanville","TX","RB",68,170,TRUE,3,0,"2003-07-09","https://n.rivals.com/content/prospects/2002/daniel-mclemore-68332","signed","Football",2002,"Texas","Duncanville, Texas",-96.911882,32.66066
35222,"Charlie Johnson","Sherman","TX","TE",76,250,TRUE,2,0,"2003-07-09","https://n.rivals.com/content/prospects/2002/charlie-johnson-35222","signed","Football",2002,"Texas","Sherman, Texas",-96.550405,33.604131
50376,"Mike Mason","San Angelo","TX","DE",76,240,TRUE,2,0,"2003-07-09","https://n.rivals.com/content/prospects/2002/mike-mason-50376","signed","Football",2002,"Texas","San Angelo, Texas",-94.686315,30.577149
54255,"Antonio Smith","Miami","OK","DE",75,240,TRUE,3,0,"2003-07-09","https://n.rivals.com/content/prospects/2002/antonio-smith-54255","signed","Football",2002,"Oklahoma","Miami, Oklahoma",-94.854482,36.842401
23034,"Sean Harmon","Edmond","OK","DE",76,260,TRUE,3,0,"2003-07-09","https://n.rivals.com/content/prospects/2002/sean-harmon-23034","signed","Football",2002,"Oklahoma","Edmond, Oklahoma",-97.478095,35.652832
20354,"Lance Carson","Garden City","KS","DT",77,270,TRUE,5,0,"2003-07-09","https://n.rivals.com/content/prospects/2002/lance-carson-20354","signed","Football",2002,"Kansas","Garden City, Kansas",-100.664407,38.000771
50426,"Glenn Jackson","Carrollton","TX","LB",73,210,TRUE,3,0,"2003-07-09","https://n.rivals.com/content/prospects/2002/glenn-jackson-50426","signed","Football",2002,"Texas","Carrollton, Texas",-96.89817,32.962473
94950,"Pagitte McGee","Tyler","TX","LB",72,215,TRUE,3,0,"2003-07-09","https://n.rivals.com/content/prospects/2002/pagitte-mcgee-94950","signed","Football",2002,"Texas","Tyler, Texas",-95.302223,32.321937
53990,"Vernon Grant","Duncanville","TX","DB",70,173,TRUE,4,0,"2003-07-09","https://n.rivals.com/content/prospects/2002/vernon-grant-53990","signed","Football",2002,"Texas","Duncanville, Texas",-96.911882,32.66066
