"id","name","city","state_abbreviation","position_group_abbreviation","height","weight","sign","stars","rivals_rating","commit_date","url","status","sport","year","state","home.town","lon","lat"
24697,"Keenen Brown","Houston","TX","WR",75,185,TRUE,4,5.8,"2013-08-12","https://n.rivals.com/content/prospects/2014/keenen-brown-24697","signed","Football",2014,"Texas","Houston, Texas",-95.309789,29.813142
50133,"Chris Lacy","DeSoto","TX","WR",74,191,TRUE,3,5.6,"2013-08-02","https://n.rivals.com/content/prospects/2014/chris-lacy-50133","signed","Football",2014,"Texas","DeSoto, Texas",-96.864075,32.599427
14112,"James Washington","Stamford","TX","WR",72,193,TRUE,3,5.5,"2013-07-24","https://n.rivals.com/content/prospects/2014/james-washington-14112","signed","Football",2014,"Texas","Stamford, Texas",-99.808377,32.869561
15196,"Devon Thomas","Broken Arrow","OK","RB",71,210,TRUE,3,5.7,"2012-12-16","https://n.rivals.com/content/prospects/2014/devon-thomas-15196","signed","Football",2014,"Oklahoma","Broken Arrow, Oklahoma",-97.562817,35.491608
22205,"Justin Phillips","Pearland","TX","LB",72,215,TRUE,3,5.5,"2013-03-19","https://n.rivals.com/content/prospects/2014/justin-phillips-22205","signed","Football",2014,"Texas","Pearland, Texas",-95.279739,29.561554
47054,"Devante Averette","Iowa Falls","IA","LB",72,230,TRUE,3,5.6,"2013-10-08","https://n.rivals.com/content/prospects/2014/devante-averette-47054","signed","Football",2014,"Iowa","Iowa Falls, Iowa",-93.253363,42.43026
41441,"Josh Mabin","Spring","TX","LB",74,227,TRUE,3,5.7,"2013-08-22","https://n.rivals.com/content/prospects/2014/josh-mabin-41441","signed","Football",2014,"Texas","Spring, Texas",-94.133243,33.233184
32850,"Kirk Tucker","Tucker","GA","DB",73,183,TRUE,3,5.7,"2014-01-26","https://n.rivals.com/content/prospects/2014/kirk-tucker-32850","signed","Football",2014,"Georgia","Tucker, Georgia",-84.21714,33.85455
12974,"Dylan Harding","Jenks","OK","DB",74,190,TRUE,2,5.4,"2013-08-01","https://n.rivals.com/content/prospects/2014/dylan-harding-12974","signed","Football",2014,"Oklahoma","Jenks, Oklahoma",-95.980972,36.006567
29807,"Deionte Noel","Cibolo","TX","OL",75,300,FALSE,2,5.4,"2014-02-05","https://n.rivals.com/content/prospects/2014/deionte-noel-29807","verbal","Football",2014,"Texas","Cibolo, Texas",-98.22696,29.56162
65586,"Lemaefe Galea&#x0027;i","Euless","TX","OL",77,330,TRUE,2,5.4,"2013-08-01","https://n.rivals.com/content/prospects/2014/lemaefe-galea-i-65586","signed","Football",2014,"Texas","Euless, Texas",-97.98837,26.297428
35148,"Ramon Richards","San Antonio","TX","ATH",72,180,TRUE,2,5.4,"2013-07-23","https://n.rivals.com/content/prospects/2014/ramon-richards-35148","signed","Football",2014,"Texas","San Antonio, Texas",-94.686315,30.577149
65593,"Trevion Roberts","Aldine","TX","ATH",74,202,TRUE,3,5.5,"2013-05-31","https://n.rivals.com/content/prospects/2014/trevion-roberts-65593","signed","Football",2014,"Texas","Aldine, Texas",-96.486458,29.709171
17667,"Tyreek Hill","Garden City","KS","ATH",70,185,TRUE,4,5.9,"2013-10-01","https://n.rivals.com/content/prospects/2014/tyreek-hill-17667","signed","Football",2014,"Kansas","Garden City, Kansas",-100.664407,38.000771
57406,"Matthew Mucha","Houston","TX","OL",78,255,TRUE,3,5.5,"2013-06-08","https://n.rivals.com/content/prospects/2014/matthew-mucha-57406","signed","Football",2014,"Texas","Houston, Texas",-95.309789,29.813142
14160,"Mason Rudolph","Rock Hill","SC","QB",76,217,TRUE,4,5.8,"2013-06-05","https://n.rivals.com/content/prospects/2014/mason-rudolph-14160","signed","Football",2014,"South Carolina","Rock Hill, South Carolina",-81.02508,34.92487
40045,"Sione Palelei","Gonzales","LA","RB",70,196,TRUE,3,5.6,"2013-12-10","https://n.rivals.com/content/prospects/2014/sione-boo-palelei-40045","signed","Football",2014,"Louisiana","Gonzales, Louisiana",-90.869481,30.204707
24810,"Jordan Frazier","Springfield","MO","TE",77,230,TRUE,2,5.4,"2014-01-18","https://n.rivals.com/content/prospects/2014/jordan-frazier-24810","signed","Football",2014,"Missouri","Springfield, Missouri",-92.043738,37.676732
20336,"Jordan Brailford","Tulsa","OK","DE",75,225,TRUE,3,5.7,"2013-06-17","https://n.rivals.com/content/prospects/2014/jordan-brailford-20336","signed","Football",2014,"Oklahoma","Tulsa, Oklahoma",-95.992775,36.153982
40030,"Cole Walterscheid","Muenster","TX","DE",78,210,TRUE,3,5.6,"2013-06-12","https://n.rivals.com/content/prospects/2014/cole-walterscheid-40030","signed","Football",2014,"Texas","Muenster, Texas",-97.34502,33.690667
63510,"Jarrell Owens","Palestine","TX","DE",76,235,TRUE,3,5.7,"2014-02-02","https://n.rivals.com/content/prospects/2014/jarrell-owens-63510","signed","Football",2014,"Texas","Palestine, Texas",-95.531381,31.73452
25384,"Trey Carter","Dallas","TX","DE",76,250,TRUE,3,5.7,"2013-11-27","https://n.rivals.com/content/prospects/2014/trey-carter-25384","signed","Football",2014,"Texas","Dallas, Texas",-96.240533,32.370699
15603,"Joyan Williams","New Orleans","LA","DT",75,265,TRUE,3,5.6,"2013-06-11","https://n.rivals.com/content/prospects/2014/joyan-williams-15603","signed","Football",2014,"Louisiana","New Orleans, Louisiana",-89.930956,30.068812
25493,"Gyasi Akem","Broken Arrow","OK","LB",73,210,TRUE,4,5.8,"2013-04-22","https://n.rivals.com/content/prospects/2014/gyasi-akem-25493","signed","Football",2014,"Oklahoma","Broken Arrow, Oklahoma",-97.562817,35.491608
52409,"D&#x0027;Nerius Antoine","Athens","TX","LB",72,215,TRUE,2,5.4,"2013-12-12","https://n.rivals.com/content/prospects/2014/d-nerius-antoine-52409","signed","Football",2014,"Texas","Athens, Texas",-95.882391,32.188097
40743,"Juwan Offray","New Orleans","LA","DB",71,180,TRUE,3,5.6,"2013-06-09","https://n.rivals.com/content/prospects/2014/juwan-offray-40743","signed","Football",2014,"Louisiana","New Orleans, Louisiana",-89.930956,30.068812
23040,"Chris Hardeman","Houston","TX","DB",69,178,TRUE,3,5.7,"2013-08-12","https://n.rivals.com/content/prospects/2014/chris-hardeman-23040","signed","Football",2014,"Texas","Houston, Texas",-95.309789,29.813142
47269,"Zach Sinor","Castroville","TX","K",71,190,TRUE,2,5.4,"2013-06-18","https://n.rivals.com/content/prospects/2014/zach-sinor-47269","signed","Football",2014,"Texas","Castroville, Texas",-98.909219,29.364948
