"id","name","city","state_abbreviation","position_group_abbreviation","height","weight","sign","stars","rivals_rating","commit_date","url","status","sport","year","state","home.town","lon","lat"
25596,"Jhajuan Seales","Port Arthur","TX","WR",73,185,TRUE,2,5.4,"2012-01-24","https://n.rivals.com/content/prospects/2012/jhajuan-seales-25596","signed","Football",2012,"Texas","Port Arthur, Texas",-95.531381,31.73452
550,"C.J. Curry","Flowery Branch","GA","WR",74,210,TRUE,4,5.8,"2011-08-11","https://n.rivals.com/content/prospects/2012/c-j-curry-550","signed","Football",2012,"Georgia","Flowery Branch, Georgia",-83.92518,34.1851
36232,"Blake Webb","The Woodlands","TX","WR",72,183,TRUE,3,5.5,"2011-09-15","https://n.rivals.com/content/prospects/2012/blake-webb-36232","signed","Football",2012,"Texas","The Woodlands, Texas",-99.505894,31.164336
47857,"Jesse Vester","Stillwater","OK","WR",70,180,TRUE,2,5.2,"2012-02-01","https://n.rivals.com/content/prospects/2012/jesse-vester-47857","signed","Football",2012,"Oklahoma","Stillwater, Oklahoma",-97.562817,35.491608
12114,"Austin Hays","San Antonio","TX","WR",75,185,TRUE,2,5.2,"2012-02-02","https://n.rivals.com/content/prospects/2012/austin-hays-12114","signed","Football",2012,"Texas","San Antonio, Texas",-94.686315,30.577149
28917,"Brandon Sheperd","Chesterfield","MO","WR",75,190,TRUE,3,5.6,"2011-12-10","https://n.rivals.com/content/prospects/2012/brandon-sheperd-28917","signed","Football",2012,"Missouri","Chesterfield, Missouri",-90.650024,38.637002
27150,"Jeremiah Tshimanga","North Richland Hills","TX","LB",75,229,TRUE,3,5.7,"2011-03-23","https://n.rivals.com/content/prospects/2012/jeremiah-tshimanga-27150","signed","Football",2012,"Texas","North Richland Hills, Texas",-97.192762,32.800434
33845,"Dominic Ramacher","Denton","TX","ATH",75,230,TRUE,3,5.7,"2011-05-15","https://n.rivals.com/content/prospects/2012/dominic-ramacher-33845","signed","Football",2012,"Texas","Denton, Texas",-97.146038,33.220974
52343,"Caleb Muncrief","Madill","OK","ATH",68,188,TRUE,2,5.4,"2012-02-01","https://n.rivals.com/content/prospects/2012/caleb-muncrief-52343","signed","Football",2012,"Oklahoma","Madill, Oklahoma",-96.77167,34.09038
53625,"Chris Grisbhy","Brenham","TX","OL",77,315,TRUE,3,5.6,"2012-01-31","https://n.rivals.com/content/prospects/2012/chris-grisbhy-53625","signed","Football",2012,"Texas","Brenham, Texas",-96.385104,30.216516
55840,"Greg Brantley","Carthage","TX","OL",79,305,TRUE,3,5.6,"2011-06-11","https://n.rivals.com/content/prospects/2012/greg-brantley-55840","signed","Football",2012,"Texas","Carthage, Texas",-94.309189,32.183133
14445,"Michael Wilson","Aledo","TX","OL",78,265,TRUE,3,5.7,"2012-01-23","https://n.rivals.com/content/prospects/2012/michael-wilson-14445","signed","Football",2012,"Texas","Aledo, Texas",-97.60225,32.69596
16329,"Paul Lewis","Galena Park","TX","OL",75,265,TRUE,3,5.5,"2011-08-02","https://n.rivals.com/content/prospects/2012/paul-lewis-16329","signed","Football",2012,"Texas","Galena Park, Texas",-95.23021,29.73356
18083,"Wes Lunt","Rochester","IL","QB",77,210,TRUE,4,5.8,"2011-06-20","https://n.rivals.com/content/prospects/2012/wes-lunt-18083","signed","Football",2012,"Illinois","Rochester, Illinois",-89.564891,39.718237
47954,"Zac Veatch","Broken Arrow","OK","TE",76,245,TRUE,3,5.6,"2011-09-28","https://n.rivals.com/content/prospects/2012/zac-veatch-47954","signed","Football",2012,"Oklahoma","Broken Arrow, Oklahoma",-97.562817,35.491608
69593,"Blake Jackson","Scottsdale","AZ","TE",76,235,TRUE,3,5.7,"2011-12-07","https://n.rivals.com/content/prospects/2012/blake-jackson-69593","signed","Football",2012,"Arizona","Scottsdale, Arizona",-111.887354,33.534451
17156,"Emmanuel Ogbah","Richmond","TX","DE",76,235,TRUE,3,5.6,"2011-09-05","https://n.rivals.com/content/prospects/2012/emmanuel-ogbah-17156","signed","Football",2012,"Texas","Richmond, Texas",-95.794526,29.64609
63978,"Victor Irokansi","Pflugerville","TX","DE",76,230,TRUE,3,5.6,"2011-07-29","https://n.rivals.com/content/prospects/2012/victor-irokansi-63978","signed","Football",2012,"Texas","Pflugerville, Texas",-97.597055,30.442737
36063,"Trace Clark","Wichita","KS","DE",77,240,TRUE,3,5.7,"2011-12-15","https://n.rivals.com/content/prospects/2012/trace-clark-36063","signed","Football",2012,"Kansas","Wichita, Kansas",-97.258997,37.651974
83707,"Eric Davis","Tyler","TX","DE",75,240,TRUE,3,5.7,"2011-09-13","https://n.rivals.com/content/prospects/2012/eric-davis-83707","signed","Football",2012,"Texas","Tyler, Texas",-95.302223,32.321937
98448,"Calvin Barnett","Corsicana","TX","DT",75,283,TRUE,3,5.7,"2011-10-10","https://n.rivals.com/content/prospects/2012/calvin-barnett-98448","signed","Football",2012,"Texas","Corsicana, Texas",-96.350943,32.043193
24286,"Seth Jacobs","Arroyo Grande","CA","LB",74,215,TRUE,4,5.8,"2012-02-02","https://n.rivals.com/content/prospects/2012/seth-jacobs-24286","signed","Football",2012,"California","Arroyo Grande, California",-117.885359,35.187133
22059,"Ashton Lampkin","Fort Worth","TX","DB",73,185,TRUE,3,5.7,"2011-04-16","https://n.rivals.com/content/prospects/2012/ashton-lampkin-22059","signed","Football",2012,"Texas","Fort Worth, Texas",-98.399458,29.049969
39271,"Kevin Peterson","Wagoner","OK","DB",71,170,TRUE,3,5.6,"2012-01-24","https://n.rivals.com/content/prospects/2012/kevin-peterson-39271","signed","Football",2012,"Oklahoma","Wagoner, Oklahoma",-95.415011,35.943419
