"id","name","city","state_abbreviation","position_group_abbreviation","height","weight","sign","stars","rivals_rating","commit_date","url","status","sport","year","state","home.town","lon","lat"
74803,"DeMarcus Connor","Spring","TX","WR",73,180,TRUE,2,5.4,"2005-07-12","https://n.rivals.com/content/prospects/2006/demarcus-connor-74803","signed","Football",2006,"Texas","Spring, Texas",-94.133243,33.233184
49029,"Anthony Parks","El Dorado","KS","WR",73,185,TRUE,2,0,"2005-12-12","https://n.rivals.com/content/prospects/2006/anthony-parks-49029","signed","Football",2006,"Kansas","El Dorado, Kansas",-96.865969,37.830491
36937,"Anthony Jones","Arlington","TX","WR",72,164,TRUE,3,5.7,"2006-02-02","https://n.rivals.com/content/prospects/2006/anthony-jones-36937","signed","Football",2006,"Texas","Arlington, Texas",-97.108066,32.735687
60826,"Adrian Hamilton","Dallas","TX","LB",74,220,TRUE,3,5.5,"2006-02-01","https://n.rivals.com/content/prospects/2006/adrian-hamilton-60826","signed","Football",2006,"Texas","Dallas, Texas",-96.240533,32.370699
21793,"Chris Collins","Texarkana","TX","LB",73,230,TRUE,2,4.9,"2006-02-02","https://n.rivals.com/content/prospects/2006/chris-collins-21793","signed","Football",2006,"Texas","Texarkana, Texas",-94.04769,33.42512
89364,"Justin Gent","Irving","TX","LB",73.5,206,TRUE,3,5.5,"2005-06-21","https://n.rivals.com/content/prospects/2006/justin-gent-89364","signed","Football",2006,"Texas","Irving, Texas",-96.948895,32.814018
89350,"Deron Fontenot","Grand Prairie","TX","DB",69,180,TRUE,3,5.5,"2005-03-09","https://n.rivals.com/content/prospects/2006/deron-fontenot-89350","signed","Football",2006,"Texas","Grand Prairie, Texas",-97.009389,32.776671
18692,"Jacob Secrest","Stillwater","OK","OL",77,295,TRUE,3,5.5,"2005-07-07","https://n.rivals.com/content/prospects/2006/jacob-secrest-18692","signed","Football",2006,"Oklahoma","Stillwater, Oklahoma",-97.562817,35.491608
47645,"Michael Booker","Paris","TX","OL",75,295,TRUE,2,5.4,"2006-01-16","https://n.rivals.com/content/prospects/2006/michael-booker-47645","signed","Football",2006,"Texas","Paris, Texas",-95.605194,33.655162
18709,"Myron McKinney","Oklahoma City","OK","OL",76,305,TRUE,3,5.5,"2005-12-30","https://n.rivals.com/content/prospects/2006/myron-mckinney-18709","signed","Football",2006,"Oklahoma","Oklahoma City, Oklahoma",-97.562817,35.491608
18743,"Orie Lemon","Houston","TX","ATH",74,230,TRUE,3,5.7,"2005-12-12","https://n.rivals.com/content/prospects/2006/orie-lemon-18743","signed","Football",2006,"Texas","Houston, Texas",-95.309789,29.813142
17741,"Artrell Woods","Bryan","TX","ATH",73,183,TRUE,3,5.6,"2005-07-27","https://n.rivals.com/content/prospects/2006/artrell-woods-17741","signed","Football",2006,"Texas","Bryan, Texas",-96.362454,30.639285
47936,"Keith Toston","Angleton","TX","ATH",73,195,TRUE,3,5.6,"2005-12-12","https://n.rivals.com/content/prospects/2006/keith-toston-47936","signed","Football",2006,"Texas","Angleton, Texas",-95.406577,29.154269
14122,"Russell Okung","Houston","TX","OL",77,250,TRUE,3,5.6,"2006-01-14","https://n.rivals.com/content/prospects/2006/russell-okung-14122","signed","Football",2006,"Texas","Houston, Texas",-95.309789,29.813142
18730,"Trent Perkins","Alice","TX","OL",78,285,TRUE,3,5.6,"2005-07-09","https://n.rivals.com/content/prospects/2006/trent-perkins-18730","signed","Football",2006,"Texas","Alice, Texas",-98.055296,27.703829
18668,"Alex Cate","Salt Lake City","UT","QB",72,200,TRUE,3,5.6,"2005-11-14","https://n.rivals.com/content/prospects/2006/alex-cate-18668","signed","Football",2006,"Utah","Salt Lake City, Utah",-111.900719,40.756095
26921,"Dantrell Savage","Perkinston","MS","RB",71,195,TRUE,4,0,"2005-12-20","https://n.rivals.com/content/prospects/2006/dantrell-savage-26921","signed","Football",2006,"Mississippi","Perkinston, Mississippi",-89.112944,30.773109
18656,"Preston Brown","Antioch","TN","RB",69,180,TRUE,3,5.5,"2005-12-09","https://n.rivals.com/content/prospects/2006/preston-brown-18656","signed","Football",2006,"Tennessee","Antioch, Tennessee",-85.657669,36.354002
34313,"Ugo Chinasa","Richardson","TX","DE",77,220,TRUE,4,5.8,"2006-01-27","https://n.rivals.com/content/prospects/2006/ugo-chinasa-34313","signed","Football",2006,"Texas","Richardson, Texas",-95.895889,30.579623
18644,"Shane Jarka","Sugar Land","TX","DE",75,228,TRUE,2,5.3,"2005-07-22","https://n.rivals.com/content/prospects/2006/shane-jarka-18644","signed","Football",2006,"Texas","Sugar Land, Texas",-95.64241,29.630032
18676,"Jonathan Lewis","Carrolton","TX","DE",76,290,TRUE,3,4.9,"2006-01-25","https://n.rivals.com/content/prospects/2006/jonathan-lewis-18676","signed","Football",2006,"Texas","Carrolton, Texas",-96.875,33.00291
43687,"Derek Burton","Muskogee","OK","DE",75,250,TRUE,4,5.8,"2006-01-16","https://n.rivals.com/content/prospects/2006/derek-burton-43687","signed","Football",2006,"Oklahoma","Muskogee, Oklahoma",-95.50025,35.70582
18685,"Quencey Patrick","Columbus","GA","DT",74,267,TRUE,3,5.7,"2005-12-19","https://n.rivals.com/content/prospects/2006/quencey-patrick-18685","signed","Football",2006,"Georgia","Columbus, Georgia",-84.97823,32.472864
25655,"Patrick Lavine","Houston","TX","LB",74,210,TRUE,4,5.8,"2005-12-11","https://n.rivals.com/content/prospects/2006/patrick-lavine-25655","signed","Football",2006,"Texas","Houston, Texas",-95.309789,29.813142
25347,"Donnell Williams","Houston","TX","LB",74,207,TRUE,3,5.6,"2005-07-11","https://n.rivals.com/content/prospects/2006/donnell-williams-25347","signed","Football",2006,"Texas","Houston, Texas",-95.309789,29.813142
35457,"Terrance Anderson","Aldine","TX","DB",72,173,TRUE,4,5.8,"2005-12-20","https://n.rivals.com/content/prospects/2006/terrance-anderson-35457","signed","Football",2006,"Texas","Aldine, Texas",-96.486458,29.709171
134607,"Scott Broughton","Milledgeville","GA","DB",73,185,TRUE,3,0,"2006-01-11","https://n.rivals.com/content/prospects/2006/scott-broughton-134607","signed","Football",2006,"Georgia","Milledgeville, Georgia",-83.239008,33.072279
14923,"Perrish Cox","Waco","TX","DB",72,175,TRUE,4,5.9,"2006-02-02","https://n.rivals.com/content/prospects/2006/perrish-cox-14923","signed","Football",2006,"Texas","Waco, Texas",-97.1382,31.552011
74264,"Al&#x0027;Darius Thompson","Mesquite","TX","DB",70,165,TRUE,3,5.5,"2005-08-05","https://n.rivals.com/content/prospects/2006/al-darius-thompson-74264","signed","Football",2006,"Texas","Mesquite, Texas",-101.630142,32.87038
